Peer Assessed Practical for Statistical Computing - 3 Practical_Day4
…
The following objects are masked from 'package:stats':

    filter, lag

The following objects are masked from 'package:base':

    intersect, setdiff, setequal, union

We will first convert flights data set to tibble so it can be viewed in a better format, then, then we’ll print the data

flights_dat <- as_tibble(flights)
flights_dat

# A tibble: 336,776 × 19
    year month   day dep_time sched_dep_time dep_delay arr_time sched_arr_time
   <int> <int> <int>    <int>          <int>     <dbl>    <int>          <int>
 1  2013     1     1      517            515         2      830            819
 2  2013     1     1      533            529         4      850            830
 3  2013     1     1      542            540         2      923            850
 4  2013     1     1      544            545        -1     1004           1022
 5  2013     1     1      554            600        -6      812            837
 6  2013     1     1      554            558        -4      740            728
 7  2013     1     1      555            600        -5      913            854
 8  2013     1     1      557            600        -3      709            723
 9  2013     1     1      557            600        -3      838            846
10  2013     1     1      558            600        -2      753            745
# ℹ 336,766 more rows
# ℹ 11 more variables: arr_delay <dbl>, carrier <chr>, flight <int>,
#   tailnum <chr>, origin <chr>, dest <chr>, air_time <dbl>, distance <dbl>,
#   hour <dbl>, minute <dbl>, time_hour <dttm>
…
5 Question 3

I realized that the carrier “OO” is the only row with “NA” sd_distance value, while “YV”, “F9”, “AS” and”HA” have a value of 0 for sd_distance. I will first use the filter() function to specify carriers that have a zero standard deviation distance.

# A tibble: 46 × 19
    year month   day dep_time sched_dep_time dep_delay arr_time sched_arr_time
   <int> <int> <int>    <int>          <int>     <dbl>    <int>          <int>
 1  2013     1     3     1428           1435        -7     1539           1559
 2  2013     1     3     1551           1602       -11     1659           1722
 3  2013     1     4     1430           1435        -5     1546           1559
 4  2013     1     4     1731           1602        89     1837           1722
 5  2013     1     6     1557           1605        -8     1714           1729
 6  2013     1     7     1430           1435        -5     1541           1559
 7  2013     1     7     1556           1602        -6     1721           1722
 8  2013     1     8     1432           1435        -3     1537           1559
 9  2013     1     8     1555           1602        -7     1727           1722
10  2013     1     9     1432           1435        -3     1543           1559
# ℹ 36 more rows
# ℹ 11 more variables: arr_delay <dbl>, carrier <chr>, flight <int>,
#   tailnum <chr>, origin <chr>, dest <chr>, air_time <dbl>, distance <dbl>,
#   hour <dbl>, minute <dbl>, time_hour <dttm>

# A tibble: 59 × 19
    year month   day dep_time sched_dep_time dep_delay arr_time sched_arr_time
   <int> <int> <int>    <int>          <int>     <dbl>    <int>          <int>
 1  2013     1     1      833            835        -2     1134           1102
 2  2013     1     1     1716           1730       -14     1947           1953
 3  2013     1     2      827            835        -8     1120           1102
 4  2013     1     2     1728           1730        -2     1952           1953
 5  2013     1     3      835            835         0     1102           1102
 6  2013     1     3     1933           1730       123     2131           1953
 7  2013     1     4      834            835        -1     1059           1102
 8  2013     1     4     1831           1730        61     2029           1953
 9  2013     1     5      835            835         0     1057           1102
10  2013     1     5     1726           1730        -4     1948           1953
# ℹ 49 more rows
# ℹ 11 more variables: arr_delay <dbl>, carrier <chr>, flight <int>,
#   tailnum <chr>, origin <chr>, dest <chr>, air_time <dbl>, distance <dbl>,
#   hour <dbl>, minute <dbl>, time_hour <dttm>

# A tibble: 62 × 19
    year month   day dep_time sched_dep_time dep_delay arr_time sched_arr_time
   <int> <int> <int>    <int>          <int>     <dbl>    <int>          <int>
 1  2013     1     1      724            725        -1     1020           1030
 2  2013     1     1     1808           1815        -7     2111           2130
 3  2013     1     2      722            725        -3      949           1030
 4  2013     1     2     1818           1815         3     2131           2130
 5  2013     1     3      724            725        -1     1012           1030
 6  2013     1     3     1817           1815         2     2121           2130
 7  2013     1     4      725            725         0     1031           1030
 8  2013     1     4     1808           1815        -7     2101           2130
 9  2013     1     5      725            725         0     1011           1030
10  2013     1     5     1803           1815       -12     2118           2130
# ℹ 52 more rows
# ℹ 11 more variables: arr_delay <dbl>, carrier <chr>, flight <int>,
#   tailnum <chr>, origin <chr>, dest <chr>, air_time <dbl>, distance <dbl>,
#   hour <dbl>, minute <dbl>, time_hour <dttm>

# A tibble: 31 × 19
    year month   day dep_time sched_dep_time dep_delay arr_time sched_arr_time
   <int> <int> <int>    <int>          <int>     <dbl>    <int>          <int>
 1  2013     1     1      857            900        -3     1516           1530
 2  2013     1     2      909            900         9     1525           1530
 3  2013     1     3      914            900        14     1504           1530
 4  2013     1     4      900            900         0     1516           1530
 5  2013     1     5      858            900        -2     1519           1530
 6  2013     1     6     1019            900        79     1558           1530
 7  2013     1     7     1042            900       102     1620           1530
 8  2013     1     8      901            900         1     1504           1530
 9  2013     1     9      641            900      1301     1242           1530
10  2013     1    10      859            900        -1     1449           1530
# ℹ 21 more rows
# ℹ 11 more variables: arr_delay <dbl>, carrier <chr>, flight <int>,
#   tailnum <chr>, origin <chr>, dest <chr>, air_time <dbl>, distance <dbl>,
#   hour <dbl>, minute <dbl>, time_hour <dttm>
…
8 Question 6

Step 1:

step1 <- flights_dat |>
  group_by(origin, dest) |>
  summarise(unique_airlines = n_distinct(carrier)) |>
  filter(unique_airlines > 1)

`summarise()` has grouped output by 'origin'. You can override using the
`.groups` argument.

step1

# A tibble: 128 × 3
# Groups:   origin [3]
   origin dest  unique_airlines
   <chr>  <chr>           <int>
 1 EWR    ATL                 4
 2 EWR    AUS                 2
 3 EWR    BDL                 2
 4 EWR    BNA                 2
 5 EWR    BOS                 3
 6 EWR    BWI                 2
 7 EWR    CHS                 2
 8 EWR    CLE                 2
 9 EWR    CLT                 3
10 EWR    CVG                 2
# ℹ 118 more rows

Step 2:

step2 <- flights_dat |>
  inner_join(step1, by = c("origin", "dest")) |>
  group_by(origin, dest, carrier) |>
  summarise(avg_arr_delay = mean(arr_delay, na.rm = TRUE), .groups = "drop") |>
  left_join(airlines, by = c("carrier" = "carrier"))
step2

# A tibble: 343 × 5
   origin dest  carrier avg_arr_delay name                    
   <chr>  <chr> <chr>           <dbl> <chr>                   
 1 EWR    ATL   9E              -6.25 Endeavor Air Inc.       
 2 EWR    ATL   DL              10.0  Delta Air Lines Inc.    
 3 EWR    ATL   EV              19.5  ExpressJet Airlines Inc.
 4 EWR    ATL   UA              10.5  United Air Lines Inc.   
 5 EWR    AUS   UA               4.28 United Air Lines Inc.   
 6 EWR    AUS   WN             -11.2  Southwest Airlines Co.  
 7 EWR    BDL   EV               6.78 ExpressJet Airlines Inc.
 8 EWR    BDL   UA              22.6  United Air Lines Inc.   
 9 EWR    BNA   EV              17.7  ExpressJet Airlines Inc.
10 EWR    BNA   WN              -2.13 Southwest Airlines Co.  
# ℹ 333 more rows

Step 3:

step3 <- step2 |>
  group_by(origin, dest) |>
  summarise(
    best_airline = carrier[which.min(avg_arr_delay)],
    worst_airline = carrier[which.max(avg_arr_delay)],
    min_delay = min(avg_arr_delay, na.rm = TRUE),
    max_delay = max(avg_arr_delay, na.rm = TRUE),
    .groups = "drop"
  )
step3

# A tibble: 128 × 6
   origin dest  best_airline worst_airline min_delay max_delay
   <chr>  <chr> <chr>        <chr>             <dbl>     <dbl>
 1 EWR    ATL   9E           EV               -6.25      19.5 
 2 EWR    AUS   WN           UA              -11.2        4.28
 3 EWR    BDL   EV           UA                6.78      22.6 
 4 EWR    BNA   WN           EV               -2.13      17.7 
 5 EWR    BOS   EV           B6               -4.01       6.87
 6 EWR    BWI   WN           EV                5.95      20.1 
 7 EWR    CHS   UA           EV              -14         16.2 
 8 EWR    CLE   EV           UA               -3.71       5.97
 9 EWR    CLT   US           EV                0.920     20.5 
10 EWR    CVG   9E           EV                1.40      21.2 
# ℹ 118 more rows
…
